{
    "_id": "566750375dcbc186f0536bce",
    "tags": [
        "arcane enhancements"
    ],
    "icon": "icons/en/Arcane_Aegis.05226d37b29123fba267f5f131a9dcd8.png",
    "thumb": "icons/en/thumbs/Arcane_Aegis.05226d37b29123fba267f5f131a9dcd8.128x128.png",
    "icon_format": "land",
    "url_name": "arcane_aegis",
    "tradable": true,
    "en": {
        "item_name": "Arcane Aegis",
        "description": "<p>Arcane Aegis is an Arcane Enhancement that provides a chance whenever the player receives damage to regenerate Warframe Shield for a short time.</p>",
        "wiki_link": "http://warframe.wikia.com/wiki/Arcane_Aegis",
        "drop": []
    },
    "ru": {
        "item_name": "Мистическая Эгида",
        "description": "<p>Описание отсутствует</p>",
        "wiki_link": "http://ru.warframe.wikia.com/wiki/%D0%9C%D0%B8%D1%81%D1%82%D0%B8%D1%87%D0%B5%D1%81%D0%BA%D0%B0%D1%8F_%D0%AD%D0%B3%D0%B8%D0%B4%D0%B0",
        "drop": []
    },
    "ko": {
        "item_name": "아케인 이지스",
        "description": "<p>Arcane Aegis is an Arcane Enhancement that provides a chance whenever the player receives damage to regenerate Warframe Shield for a short time.</p>",
        "wiki_link": "http://warframe.wikia.com/wiki/Arcane_Aegis",
        "drop": []
    },
    "rarity": "rare",
    "mod_max_rank": 3,
    "trading_tax": 8000
}