{
    "_id": "551085b5e7798972a3b857aa",
    "tags": [
        "arcane enhancements"
    ],
    "icon": "icons/en/Arcane_Eruption.96e2b7f03322df6295089a9dd442df86.png",
    "thumb": "icons/en/thumbs/Arcane_Eruption.96e2b7f03322df6295089a9dd442df86.128x128.png",
    "icon_format": "land",
    "url_name": "arcane_eruption",
    "tradable": true,
    "en": {
        "item_name": "Arcane Eruption",
        "description": "<p>Arcane Eruption is an Arcane Enhancement  that provides a chance whenever an energy orb is picked up to knock down nearby enemies.</p>",
        "wiki_link": "http://warframe.wikia.com/wiki/Arcane_Eruption",
        "drop": []
    },
    "ru": {
        "item_name": "Мистический Взрыв",
        "description": "<p>Мистический Взрыв - необычный мистификатор, который сбивает всех противников с ног в радиусе 5 метров при подборе сферы энергии с шансом 5%. На максимальном ранге мистификатора радиус эффекта составляет 20 метров, а шанс срабатывания 20%.</p>",
        "wiki_link": "http://ru.warframe.wikia.com/wiki/%D0%9C%D0%B8%D1%81%D1%82%D0%B8%D1%87%D0%B5%D1%81%D0%BA%D0%B8%D0%B9_%D0%92%D0%B7%D1%80%D1%8B%D0%B2",
        "drop": []
    },
    "ko": {
        "item_name": "아케인 이럽션",
        "description": "<p>Arcane Eruption is an Arcane Enhancement  that provides a chance whenever an energy orb is picked up to knock down nearby enemies.</p>",
        "wiki_link": "http://warframe.wikia.com/wiki/Arcane_Eruption",
        "drop": []
    },
    "rarity": "uncommon",
    "mod_max_rank": 3,
    "trading_tax": 4000
}