{
    "_id": "5d8765de7ea27b08950c13b8",
    "tags": [
        "arcane enhancements"
    ],
    "icon": "icons/en/arcane_bodyguard.bedeb0f2ceb9e91f99f682b990c09648.png",
    "thumb": "icons/en/thumbs/arcane_bodyguard.bedeb0f2ceb9e91f99f682b990c09648.128x128.png",
    "icon_format": "land",
    "url_name": "arcane_bodyguard",
    "tradable": true,
    "en": {
        "item_name": "Arcane Bodyguard",
        "description": "<p>Arcane Bodyguard is an Arcane Enhancement that provides healing for Companion upon killing 6 enemies with melee within 30 seconds.</p>",
        "wiki_link": "https://warframe.fandom.com/wiki/Arcane_Bodyguard",
        "drop": [
            {
                "name": "Arbitrations",
                "link": null
            }
        ]
    },
    "ru": {
        "item_name": "Мистический Телохранитель",
        "description": "<p>Мистический Телохранитель - редкий мистификатор, который при 6 убийствах в ближнем бою восстанавливает компаньонам здоровье.</p>",
        "wiki_link": "https://warframe.fandom.com/ru/wiki/%D0%9C%D0%B8%D1%81%D1%82%D0%B8%D1%87%D0%B5%D1%81%D0%BA%D0%B8%D0%B9_%D0%A2%D0%B5%D0%BB%D0%BE%D1%85%D1%80%D0%B0%D0%BD%D0%B8%D1%82%D0%B5%D0%BB%D1%8C",
        "drop": [
            {
                "name": "Награда за Арбитраж",
                "link": null
            }
        ]
    },
    "ko": {
        "item_name": "아케인 보디가드",
        "description": "<p>Arcane Bodyguard is an Arcane Enhancement that provides healing for Companion upon killing 6 enemies with melee within 30 seconds.</p>",
        "wiki_link": "https://warframe.fandom.com/wiki/Arcane_Bodyguard",
        "drop": [
            {
                "name": "Arbitrations",
                "link": null
            }
        ]
    },
    "rarity": "rare",
    "mod_max_rank": 3,
    "trading_tax": 8000
}