{
    "_id": "5e02154e14569703bf43e54c",
    "tags": [
        "avionic"
    ],
    "icon": "icons/en/blackout_pulse.ff5f23593d0850514dd7b63c3a16d8c9.png",
    "thumb": "icons/en/thumbs/blackout_pulse.ff5f23593d0850514dd7b63c3a16d8c9.128x128.png",
    "icon_format": "port",
    "url_name": "blackout_pulse",
    "tradable": true,
    "en": {
        "item_name": "Blackout Pulse",
        "description": "A Battle Avionics that deploys an electro-magnetic pulse that deals damage to enemies and disables them temporarily. Manual detonation increases the blast radius",
        "wiki_link": "https://warframe.fandom.com/wiki/Avionics#Blackout_Pulse",
        "drop": [
            {
                "name": "Gyre Taktis",
                "link": null
            }
        ]
    },
    "ru": {
        "item_name": "Blackout Pulse",
        "description": "A Battle Avionics that deploys an electro-magnetic pulse that deals damage to enemies and disables them temporarily. Manual detonation increases the blast radius",
        "wiki_link": "https://warframe.fandom.com/wiki/Avionics#Blackout_Pulse",
        "drop": [
            {
                "name": "Gyre Taktis",
                "link": null
            }
        ]
    },
    "ko": {
        "item_name": "Blackout Pulse",
        "description": "A Battle Avionics that deploys an electro-magnetic pulse that deals damage to enemies and disables them temporarily. Manual detonation increases the blast radius",
        "wiki_link": "https://warframe.fandom.com/wiki/Avionics#Blackout_Pulse",
        "drop": [
            {
                "name": "Gyre Taktis",
                "link": null
            }
        ]
    },
    "mod_max_rank": 4
}