{
    "_id": "5dff6e1014569703166749f3",
    "tags": [
        "avionic"
    ],
    "icon": "icons/en/hyperflux_(lavan).ff5f23593d0850514dd7b63c3a16d8c9.png",
    "thumb": "icons/en/thumbs/hyperflux_(lavan).ff5f23593d0850514dd7b63c3a16d8c9.128x128.png",
    "icon_format": "port",
    "url_name": "hyperflux_(lavan)",
    "tradable": true,
    "en": {
        "item_name": "Hyperflux (Lavan)",
        "description": "A Integrated Avionics that increases Flux Energy",
        "wiki_link": "https://warframe.fandom.com/wiki/Avionics#Hyperflux",
        "drop": [
            {
                "name": "Kosma Flak",
                "link": null
            },
            {
                "name": "Exo Flak",
                "link": null
            },
            {
                "name": "Gyre Flak",
                "link": null
            }
        ]
    },
    "ru": {
        "item_name": "Hyperflux (Lavan)",
        "description": "A Integrated Avionics that increases Flux Energy",
        "wiki_link": "https://warframe.fandom.com/wiki/Avionics#Hyperflux",
        "drop": [
            {
                "name": "Kosma Flak",
                "link": null
            },
            {
                "name": "Exo Flak",
                "link": null
            },
            {
                "name": "Gyre Flak",
                "link": null
            }
        ]
    },
    "ko": {
        "item_name": "Hyperflux (Lavan)",
        "description": "A Integrated Avionics that increases Flux Energy",
        "wiki_link": "https://warframe.fandom.com/wiki/Avionics#Hyperflux",
        "drop": [
            {
                "name": "Kosma Flak",
                "link": null
            },
            {
                "name": "Exo Flak",
                "link": null
            },
            {
                "name": "Gyre Flak",
                "link": null
            }
        ]
    },
    "mod_max_rank": 1
}