{
    "_id": "5dff6e1014569703166749e6",
    "tags": [
        "avionic"
    ],
    "icon": "icons/en/void_cloak.ff5f23593d0850514dd7b63c3a16d8c9.png",
    "thumb": "icons/en/thumbs/void_cloak.ff5f23593d0850514dd7b63c3a16d8c9.128x128.png",
    "icon_format": "port",
    "url_name": "void_cloak",
    "tradable": true,
    "en": {
        "item_name": "Void Cloak",
        "description": "A Tactical Avionics that cloaks the Railjack at the expense of engine speed. Cooldown of 120s.",
        "wiki_link": "https://warframe.fandom.com/wiki/Avionics#Void_Cloak",
        "drop": [
            {
                "name": "Elite Exo Cutter",
                "link": null
            }
        ]
    },
    "ru": {
        "item_name": "Void Cloak",
        "description": "A Tactical Avionics that cloaks the Railjack at the expense of engine speed. Cooldown of 120s.",
        "wiki_link": "https://warframe.fandom.com/wiki/Avionics#Void_Cloak",
        "drop": [
            {
                "name": "Elite Exo Cutter",
                "link": null
            }
        ]
    },
    "ko": {
        "item_name": "Void Cloak",
        "description": "A Tactical Avionics that cloaks the Railjack at the expense of engine speed. Cooldown of 120s.",
        "wiki_link": "https://warframe.fandom.com/wiki/Avionics#Void_Cloak",
        "drop": [
            {
                "name": "Elite Exo Cutter",
                "link": null
            }
        ]
    },
    "mod_max_rank": 4
}