{
    "_id": "5e021024da26e8e5fe5b49e9",
    "url_name": "pennant",
    "group": "melee",
    "riven_type": "melee",
    "icon": "icons/en/pennant.c466162ce14d3ae4acbf5ccae316026c.png",
    "thumb": "icons/en/thumbs/pennant.c466162ce14d3ae4acbf5ccae316026c.128x128.png",
    "icon_format": "land",
    "en": {
        "item_name": "Pennant",
        "wiki_link": "https://warframe.fandom.com/wiki/Pennant"
    },
    "ru": {
        "item_name": "Флюгер",
        "wiki_link": "https://warframe.fandom.com/wiki/Pennant"
    },
    "ko": {
        "item_name": "Pennant",
        "wiki_link": "https://warframe.fandom.com/wiki/Pennant"
    }
}