{
    "_id": "5e021024da26e8e5fe5b49e8",
    "url_name": "shedu",
    "group": "primary",
    "riven_type": "rifle",
    "icon": "icons/en/shedu.765c016812e915e1e06ceb5e3820ae48.png",
    "thumb": "icons/en/thumbs/shedu.765c016812e915e1e06ceb5e3820ae48.128x128.png",
    "icon_format": "land",
    "en": {
        "item_name": "Shedu",
        "wiki_link": "https://warframe.fandom.com/wiki/Shedu"
    },
    "ru": {
        "item_name": "Шиду",
        "wiki_link": "https://warframe.fandom.com/ru/wiki/%D0%A8%D0%B8%D0%B4%D1%83"
    },
    "ko": {
        "item_name": "Shedu",
        "wiki_link": "https://warframe.fandom.com/wiki/Shedu"
    }
}